lab5/Lab5test/lab5.vcd
$date
	Fri May 27 01:54:12 2022
$end
$version
	Icarus Verilog
$end
$timescale
	1ps
$end
$scope module testbench $end
$var reg 1 ! clk $end
$var reg 1 " rst_n $end
$var integer 32 # count [31:0] $end
$var integer 32 $ fp_w [31:0] $end
$scope module CPU $end
$var wire 1 % IFID_Flush $end
$var wire 32 & Imm_4 [31:0] $end
$var wire 1 ! clk_i $end
$var wire 1 " rst_i $end
$var wire 32 ' instr [31:0] $end
$var wire 32 ( SL1_o [31:0] $end
$var wire 1 ) RegWrite $end
$var wire 32 * RTdata_o [31:0] $end
$var wire 32 + RSdata_o [31:0] $end
$var wire 1 , PC_write $end
$var wire 32 - PC_o [31:0] $end
$var wire 32 . PC_i [31:0] $end
$var wire 32 / PC_Add_Immediate [31:0] $end
$var wire 32 0 PC_Add4 [31:0] $end
$var wire 1 1 MemtoReg $end
$var wire 1 2 MemWrite $end
$var wire 1 3 MemRead $end
$var wire 32 4 MUX_control_o [31:0] $end
$var wire 32 5 MUXMemtoReg_o [31:0] $end
$var wire 1 6 MUXControl $end
$var wire 32 7 MUXALUSrc_o [31:0] $end
$var wire 3 8 MEMWB_WB_o [2:0] $end
$var wire 32 9 MEMWB_PC_Add4_o [31:0] $end
$var wire 5 : MEMWB_Instr_11_7_o [4:0] $end
$var wire 32 ; MEMWB_DM_o [31:0] $end
$var wire 32 < MEMWB_ALUresult_o [31:0] $end
$var wire 1 = Jump $end
$var wire 32 > Imm_Gen_o [31:0] $end
$var wire 1 ? IFID_Write $end
$var wire 32 @ IFID_PC_o [31:0] $end
$var wire 32 A IFID_PC_Add4_o [31:0] $end
$var wire 32 B IFID_Instr_o [31:0] $end
$var wire 3 C IDEXE_WB_o [2:0] $end
$var wire 32 D IDEXE_RTdata_o [31:0] $end
$var wire 32 E IDEXE_RSdata_o [31:0] $end
$var wire 32 F IDEXE_PC_add4_o [31:0] $end
$var wire 2 G IDEXE_Mem_o [1:0] $end
$var wire 32 H IDEXE_Instr_o [31:0] $end
$var wire 4 I IDEXE_Instr_30_14_12_o [3:0] $end
$var wire 5 J IDEXE_Instr_11_7_o [4:0] $end
$var wire 32 K IDEXE_ImmGen_o [31:0] $end
$var wire 3 L IDEXE_Exe_o [2:0] $end
$var wire 2 M ForwardB [1:0] $end
$var wire 2 N ForwardA [1:0] $end
$var wire 1 O EXEMEM_Zero_o $end
$var wire 3 P EXEMEM_WB_o [2:0] $end
$var wire 32 Q EXEMEM_RTdata_o [31:0] $end
$var wire 32 R EXEMEM_PC_Add4_o [31:0] $end
$var wire 2 S EXEMEM_Mem_o [1:0] $end
$var wire 32 T EXEMEM_Instr_o [31:0] $end
$var wire 5 U EXEMEM_Instr_11_7_o [4:0] $end
$var wire 32 V EXEMEM_ALUResult_o [31:0] $end
$var wire 32 W DM_o [31:0] $end
$var wire 1 X Branch_zero $end
$var wire 1 Y Branch $end
$var wire 1 Z ALU_zero $end
$var wire 4 [ ALU_Ctrl_o [3:0] $end
$var wire 32 \ ALUSrc2_o [31:0] $end
$var wire 32 ] ALUSrc1_o [31:0] $end
$var wire 1 ^ ALUSrc $end
$var wire 32 _ ALUResult [31:0] $end
$var wire 2 ` ALUOp [1:0] $end
$scope module ALU_Ctrl $end
$var wire 2 a ALUOp [1:0] $end
$var wire 4 b instr [3:0] $end
$var wire 3 c func3 [2:0] $end
$var reg 4 d ALU_Ctrl_o [3:0] $end
$var reg 4 e alufunc [3:0] $end
$var reg 4 f alufunct3 [3:0] $end
$upscope $end
$scope module Branch_Adder $end
$var wire 32 g src2_i [31:0] $end
$var wire 32 h src1_i [31:0] $end
$var reg 32 i sum_o [31:0] $end
$upscope $end
$scope module Data_Memory $end
$var wire 1 j MemRead_i $end
$var wire 1 k MemWrite_i $end
$var wire 1 ! clk_i $end
$var wire 32 l data_o [31:0] $end
$var wire 32 m data_i [31:0] $end
$var wire 32 n addr_i [31:0] $end
$var integer 32 o i [31:0] $end
$upscope $end
$scope module Decoder $end
$var wire 7 p instr_i [6:0] $end
$var wire 7 q opcode [6:0] $end
$var reg 2 r ALUOp [1:0] $end
$var reg 1 ^ ALUSrc $end
$var reg 1 Y Branch $end
$var reg 1 = Jump $end
$var reg 1 3 MemRead $end
$var reg 1 2 MemWrite $end
$var reg 1 1 MemtoReg $end
$var reg 1 ) RegWrite $end
$upscope $end
$scope module EXEtoMEM $end
$var wire 1 ! clk_i $end
$var wire 1 " rst_i $end
$var wire 1 Z zero_i $end
$var wire 32 s rtdata_i [31:0] $end
$var wire 32 t pc_add4_i [31:0] $end
$var wire 32 u instr_i [31:0] $end
$var wire 32 v alu_ans_i [31:0] $end
$var wire 5 w WBreg_i [4:0] $end
$var wire 3 x WB_i [2:0] $end
$var wire 2 y Mem_i [1:0] $end
$var reg 2 z Mem_o [1:0] $end
$var reg 3 { WB_o [2:0] $end
$var reg 5 | WBreg_o [4:0] $end
$var reg 32 } alu_ans_o [31:0] $end
$var reg 32 ~ instr_o [31:0] $end
$var reg 32 !" pc_add4_o [31:0] $end
$var reg 32 "" rtdata_o [31:0] $end
$var reg 1 O zero_o $end
$upscope $end
$scope module FWUnit $end
$var wire 5 #" EXEMEM_RD [4:0] $end
$var wire 1 $" EXEMEM_RegWrite $end
$var wire 5 %" IDEXE_RS1 [4:0] $end
$var wire 5 &" IDEXE_RS2 [4:0] $end
$var wire 1 '" MEMWB_RegWrite $end
$var wire 5 (" MEMWB_RD [4:0] $end
$var reg 2 )" ForwardA [1:0] $end
$var reg 2 *" ForwardB [1:0] $end
$upscope $end
$scope module Hazard_detection_obj $end
$var wire 1 +" IDEXE_memRead $end
$var wire 5 ," IFID_regRs [4:0] $end
$var wire 5 -" IFID_regRt [4:0] $end
$var wire 5 ." IDEXE_regRd [4:0] $end
$var reg 1 ? IFID_write $end
$var reg 1 , PC_write $end
$var reg 1 6 control_output_select $end
$upscope $end
$scope module IDtoEXE $end
$var wire 3 /" Exe_i [2:0] $end
$var wire 2 0" Mem_i [1:0] $end
$var wire 3 1" WB_i [2:0] $end
$var wire 5 2" WBreg_i [4:0] $end
$var wire 4 3" alu_ctrl_instr [3:0] $end
$var wire 1 ! clk_i $end
$var wire 1 " rst_i $end
$var wire 32 4" pc_add4_i [31:0] $end
$var wire 32 5" instr_i [31:0] $end
$var wire 32 6" immgen_i [31:0] $end
$var wire 32 7" data2_i [31:0] $end
$var wire 32 8" data1_i [31:0] $end
$var reg 3 9" Exe_o [2:0] $end
$var reg 2 :" Mem_o [1:0] $end
$var reg 3 ;" WB_o [2:0] $end
$var reg 5 <" WBreg_o [4:0] $end
$var reg 4 =" alu_ctrl_input [3:0] $end
$var reg 32 >" data1_o [31:0] $end
$var reg 32 ?" data2_o [31:0] $end
$var reg 32 @" immgen_o [31:0] $end
$var reg 32 A" instr_o [31:0] $end
$var reg 32 B" pc_add4_o [31:0] $end
$upscope $end
$scope module IFtoID $end
$var wire 1 ? IFID_write $end
$var wire 1 ! clk_i $end
$var wire 1 % flush $end
$var wire 1 " rst_i $end
$var wire 32 C" pc_add4_i [31:0] $end
$var wire 32 D" instr_i [31:0] $end
$var wire 32 E" address_i [31:0] $end
$var reg 32 F" address_o [31:0] $end
$var reg 32 G" instr_o [31:0] $end
$var reg 32 H" pc_add4_o [31:0] $end
$upscope $end
$scope module IM $end
$var wire 32 I" instr_o [31:0] $end
$var wire 32 J" addr_i [31:0] $end
$var integer 32 K" i [31:0] $end
$upscope $end
$scope module ImmGen $end
$var wire 32 L" instr_i [31:0] $end
$var wire 7 M" opcode [6:0] $end
$var wire 3 N" func3 [2:0] $end
$var reg 32 O" Imm_Gen_o [31:0] $end
$upscope $end
$scope module MEMtoWB $end
$var wire 32 P" DM_i [31:0] $end
$var wire 3 Q" WB_i [2:0] $end
$var wire 5 R" WBreg_i [4:0] $end
$var wire 32 S" alu_ans_i [31:0] $end
$var wire 1 ! clk_i $end
$var wire 32 T" pc_add4_i [31:0] $end
$var wire 1 " rst_i $end
$var reg 32 U" DM_o [31:0] $end
$var reg 3 V" WB_o [2:0] $end
$var reg 5 W" WBreg_o [4:0] $end
$var reg 32 X" alu_ans_o [31:0] $end
$var reg 32 Y" pc_add4_o [31:0] $end
$upscope $end
$scope module MUX_ALUSrc $end
$var wire 32 Z" data0_i [31:0] $end
$var wire 32 [" data1_i [31:0] $end
$var wire 1 \" select_i $end
$var reg 32 ]" data_o [31:0] $end
$upscope $end
$scope module MUX_ALU_src1 $end
$var wire 32 ^" data0_i [31:0] $end
$var wire 32 _" data2_i [31:0] $end
$var wire 2 `" select_i [1:0] $end
$var wire 32 a" data1_i [31:0] $end
$var reg 32 b" data_o [31:0] $end
$upscope $end
$scope module MUX_ALU_src2 $end
$var wire 32 c" data0_i [31:0] $end
$var wire 32 d" data2_i [31:0] $end
$var wire 2 e" select_i [1:0] $end
$var wire 32 f" data1_i [31:0] $end
$var reg 32 g" data_o [31:0] $end
$upscope $end
$scope module MUX_MemtoReg $end
$var wire 32 h" data0_i [31:0] $end
$var wire 32 i" data1_i [31:0] $end
$var wire 32 j" data2_i [31:0] $end
$var wire 2 k" select_i [1:0] $end
$var reg 32 l" data_o [31:0] $end
$upscope $end
$scope module MUX_PCSrc $end
$var wire 32 m" data1_i [31:0] $end
$var wire 1 % select_i $end
$var wire 32 n" data0_i [31:0] $end
$var reg 32 o" data_o [31:0] $end
$upscope $end
$scope module MUX_control $end
$var wire 32 p" data0_i [31:0] $end
$var wire 32 q" data1_i [31:0] $end
$var wire 1 6 select_i $end
$var reg 32 r" data_o [31:0] $end
$upscope $end
$scope module PC $end
$var wire 1 , PC_write $end
$var wire 1 ! clk_i $end
$var wire 32 s" pc_i [31:0] $end
$var wire 1 " rst_i $end
$var reg 32 t" pc_o [31:0] $end
$upscope $end
$scope module PC_plus_4_Adder $end
$var wire 32 u" src1_i [31:0] $end
$var wire 32 v" src2_i [31:0] $end
$var reg 32 w" sum_o [31:0] $end
$upscope $end
$scope module RF $end
$var wire 5 x" RDaddr_i [4:0] $end
$var wire 32 y" RDdata_i [31:0] $end
$var wire 5 z" RSaddr_i [4:0] $end
$var wire 32 {" RSdata_o [31:0] $end
$var wire 5 |" RTaddr_i [4:0] $end
$var wire 32 }" RTdata_o [31:0] $end
$var wire 1 ~" RegWrite_i $end
$var wire 1 ! clk_i $end
$var wire 1 " rst_i $end
$upscope $end
$scope module SL1 $end
$var wire 32 !# data_i [31:0] $end
$var wire 32 "# data_o [31:0] $end
$upscope $end
$scope module alu $end
$var wire 4 ## ALU_control [3:0] $end
$var wire 1 " rst_n $end
$var wire 32 $# src1 [31:0] $end
$var wire 32 %# src2 [31:0] $end
$var wire 1 Z zero $end
$var reg 32 &# result [31:0] $end
$upscope $end
$upscope $end
$upscope $end
$enddefinitions $end
#0
$dumpvars
b0 &#
bx %#
bx $#
bx ##
bx0 "#
bx !#
x~"
bx }"
bx |"
bx {"
bx z"
bx y"
bx x"
bx w"
b100 v"
bx u"
bx t"
bx s"
b0 r"
b0 q"
b0xxxxxxxx p"
bx o"
bx n"
bx m"
bx l"
bx k"
bx j"
bx i"
bx h"
bx g"
bx f"
bx e"
bx d"
bx c"
bx b"
bx a"
bx `"
bx _"
bx ^"
bx ]"
x\"
bx ["
bx Z"
bx Y"
bx X"
bx W"
bx V"
bx U"
bx T"
bx S"
bx R"
bx Q"
bx P"
bx O"
bx N"
bx M"
bx L"
b100000 K"
bx J"
bx I"
bx H"
bx G"
bx F"
bx E"
bx D"
bx C"
bx B"
bx A"
bx @"
bx ?"
bx >"
bx ="
bx <"
bx ;"
bx :"
bx 9"
bx 8"
bx 7"
bx 6"
bx 5"
bx 4"
bx 3"
bx 2"
b0 1"
b0 0"
b0 /"
bx ."
bx -"
bx ,"
x+"
bx *"
bx )"
bx ("
x'"
bx &"
bx %"
x$"
bx #"
bx ""
bx !"
bx ~
bx }
bx |
bx {
bx z
bx y
bx x
bx w
b0 v
bx u
bx t
bx s
bx r
bx q
bx p
b10000000 o
bx n
bx m
bx l
xk
xj
bx i
bx0 h
bx g
bx f
bx e
bx d
bx c
bx b
bx a
bx `
b0 _
x^
bx ]
bx \
bx [
1Z
xY
xX
bx W
bx V
bx U
bx T
bx S
bx R
bx Q
bx P
xO
bx N
bx M
bx L
bx K
bx J
bx I
bx H
bx G
bx F
bx E
bx D
bx C
bx B
bx A
bx @
x?
bx >
x=
bx <
bx ;
bx :
bx 9
bx 8
bx 7
x6
bx 5
b0 4
x3
x2
x1
bx 0
bx /
bx .
bx -
x,
bx +
bx *
x)
bx0 (
bx '
b100 &
x%
b10000000000000000000000000000011 $
b0 #
0"
0!
$end
#25000
b100 /"
b101 1"
b100 .
b100 o"
b100 s"
b0 /
b0 i
b0 m"
b10100100 4
b10100100 r"
0%
b0 (
b0 h
b0 "#
11
b0 `
b0 r
1^
02
03
0=
0Y
b10100100 p"
1)
b10 f
b10 [
b10 d
b10 ##
b100 0
b100 C"
b100 n"
b100 w"
b0 >
b0 6"
b0 O"
b0 !#
06
1?
1,
b10 e
b0 7
b0 ]"
b0 c"
b0 ]
b0 b"
b0 $#
b0 \
b0 g"
b0 %#
b0 M
b0 *"
b0 e"
b0 N
b0 )"
b0 `"
b0 5
b0 a"
b0 f"
b0 l"
b0 y"
b0 M"
b0 N"
b0 2"
b0 3"
1X
b0 *
b0 7"
b0 }"
b0 |"
b0 +
b0 8"
b0 {"
b0 z"
b0 q
b0 p
b0 -"
b0 ,"
b0 c
b0 a
0\"
0+"
b0 &"
b0 %"
b0 W
b0 l
b0 P"
0k
0j
0$"
b0 k"
0'"
0~"
b100000000000000011101111 '
b100000000000000011101111 D"
b100000000000000011101111 I"
b0 -
b0 E"
b0 J"
b0 t"
b0 u"
b0 A
b0 4"
b0 H"
b0 B
b0 5"
b0 G"
b0 L"
b0 @
b0 g
b0 F"
b0 F
b0 t
b0 B"
b0 J
b0 w
b0 ."
b0 <"
b0 I
b0 b
b0 ="
b0 K
b0 @"
b0 ["
b0 D
b0 s
b0 ?"
b0 Z"
b0 E
b0 >"
b0 ^"
b0 L
b0 9"
b0 G
b0 y
b0 :"
b0 C
b0 x
b0 ;"
b0 H
b0 u
b0 A"
b0 R
b0 !"
b0 T"
b0 U
b0 |
b0 #"
b0 R"
b0 Q
b0 m
b0 ""
b0 V
b0 n
b0 }
b0 S"
b0 _"
b0 d"
0O
b0 S
b0 z
b0 P
b0 {
b0 Q"
b0 T
b0 ~
b0 9
b0 Y"
b0 j"
b0 :
b0 ("
b0 W"
b0 x"
b0 <
b0 X"
b0 h"
b0 ;
b0 U"
b0 i"
b0 8
b0 V"
b1 #
1!
#50000
0!
1"
#75000
b1 /"
b11 1"
b1000 /
b1000 i
b1000 m"
b1100001 4
b1100001 r"
b1000 .
b1000 o"
b1000 s"
b1000 (
b1000 h
b1000 "#
1%
b100 >
b100 6"
b100 O"
b100 !#
01
b1 `
b1 r
0^
b1100001 p"
1=
b1000 0
b1000 C"
b1000 n"
b1000 w"
1\"
b1101111 M"
b1 2"
b1000 |"
b1101111 q
b1101111 p
b1000 -"
1O
b100 L
b100 9"
b101 C
b101 x
b101 ;"
b100 A
b100 4"
b100 H"
b100000000000000011101111 B
b100000000000000011101111 5"
b100000000000000011101111 G"
b100000000000000011101111 L"
b10100100000001000010011 '
b10100100000001000010011 D"
b10100100000001000010011 I"
b100 -
b100 E"
b100 J"
b100 t"
b100 u"
b10 #
1!
#100000
0!
#125000
b111 /"
b1 1"
b1100 .
b1100 o"
b1100 s"
b0 /
b0 i
b0 m"
b100111 4
b100111 r"
0%
b0 (
b0 h
b0 "#
b11 `
b11 r
1^
b100111 p"
0=
b110 [
b110 d
b110 ##
b1100 0
b1100 C"
b1100 n"
b1100 w"
b0 >
b0 6"
b0 O"
b0 !#
b10011 M"
b0 2"
b0 |"
b10011 q
b10011 p
b0 -"
b1 a
0\"
b1000 &"
1$"
b10100011000000110010011 '
b10100011000000110010011 D"
b10100011000000110010011 I"
b1000 -
b1000 E"
b1000 J"
b1000 t"
b1000 u"
b0 A
b0 4"
b0 H"
b10011 B
b10011 5"
b10011 G"
b10011 L"
b100 F
b100 t
b100 B"
b1 J
b1 w
b1 ."
b1 <"
b100 K
b100 @"
b100 ["
b1 L
b1 9"
b11 C
b11 x
b11 ;"
b100000000000000011101111 H
b100000000000000011101111 u
b100000000000000011101111 A"
b101 P
b101 {
b101 Q"
b11 #
1!
#150000
0!
#175000
b10000 .
b10000 o"
b10000 s"
b1010 (
b1010 h
b1010 "#
b10 [
b10 d
b10 ##
b101 >
b101 6"
b101 O"
b101 !#
b10010 /
b10010 i
b10010 m"
b10000 0
b10000 C"
b10000 n"
b10000 w"
b1 k"
1'"
1~"
b11 a
1\"
b0 &"
b11 2"
b101 |"
b11 z"
b101 -"
b11 ,"
b101 8
b101 V"
b100 R
b100 !"
b100 T"
b1 U
b1 |
b1 #"
b1 R"
b11 P
b11 {
b11 Q"
b100000000000000011101111 T
b100000000000000011101111 ~
b0 F
b0 t
b0 B"
b0 J
b0 w
b0 ."
b0 <"
b0 K
b0 @"
b0 ["
b111 L
b111 9"
b1 C
b1 x
b1 ;"
b10011 H
b10011 u
b10011 A"
b1100 A
b1100 4"
b1100 H"
b10100011000000110010011 B
b10100011000000110010011 5"
b10100011000000110010011 G"
b10100011000000110010011 L"
b1000 @
b1000 g
b1000 F"
b0 '
b0 D"
b0 I"
b1100 -
b1100 E"
b1100 J"
b1100 t"
b1100 u"
b100 #
1!
#200000
0!
#225000
0Z
b101 _
b101 v
b101 &#
b100 /"
b101 1"
b10100100 4
b10100100 r"
b10100 .
b10100 o"
b10100 s"
b101 \
b101 g"
b101 %#
b0 (
b0 h
b0 "#
11
b10100100 p"
b0 `
b0 r
b10100 0
b10100 C"
b10100 n"
b10100 w"
b0 >
b0 6"
b0 O"
b0 !#
b1100 /
b1100 i
b1100 m"
b101 7
b101 ]"
b101 c"
b100 5
b100 a"
b100 f"
b100 l"
b100 y"
b0 M"
b0 2"
b0 |"
b0 z"
b0 q
b0 p
b0 -"
b0 ,"
b101 &"
b11 %"
b10 k"
b10000 -
b10000 E"
b10000 J"
b10000 t"
b10000 u"
b10000 A
b10000 4"
b10000 H"
b0 B
b0 5"
b0 G"
b0 L"
b1100 @
b1100 g
b1100 F"
b1100 F
b1100 t
b1100 B"
b11 J
b11 w
b11 ."
b11 <"
b101 K
b101 @"
b101 ["
b10100011000000110010011 H
b10100011000000110010011 u
b10100011000000110010011 A"
b0 R
b0 !"
b0 T"
b0 U
b0 |
b0 #"
b0 R"
b1 P
b1 {
b1 Q"
b10011 T
b10011 ~
b100 9
b100 Y"
b100 j"
b1 :
b1 ("
b1 W"
b1 x"
b11 8
b11 V"
b101 #
1!
#250000
0!
#275000
1Z
b0 _
b0 v
b0 &#
b0 \
b0 g"
b0 %#
b11000 .
b11000 o"
b11000 s"
b0 5
b0 a"
b0 f"
b0 l"
b0 y"
b0 7
b0 ]"
b0 c"
b10000 /
b10000 i
b10000 m"
b11000 0
b11000 C"
b11000 n"
b11000 w"
b0 k"
b0 a
b0 &"
b0 %"
b0 9
b0 Y"
b0 j"
b0 :
b0 ("
b0 W"
b0 x"
b1 8
b1 V"
b1100 R
b1100 !"
b1100 T"
b11 U
b11 |
b11 #"
b11 R"
b101 V
b101 n
b101 }
b101 S"
b101 _"
b101 d"
0O
b10100011000000110010011 T
b10100011000000110010011 ~
b10000 F
b10000 t
b10000 B"
b0 J
b0 w
b0 ."
b0 <"
b0 K
b0 @"
b0 ["
b100 L
b100 9"
b101 C
b101 x
b101 ;"
b0 H
b0 u
b0 A"
b10100 A
b10100 4"
b10100 H"
b10000 @
b10000 g
b10000 F"
b10100 -
b10100 E"
b10100 J"
b10100 t"
b10100 u"
b110 #
1!
#300000
0!
#325000
b11100 .
b11100 o"
b11100 s"
b11100 0
b11100 C"
b11100 n"
b11100 w"
b10100 /
b10100 i
b10100 m"
b101 5
b101 a"
b101 f"
b101 l"
b101 y"
b11000 -
b11000 E"
b11000 J"
b11000 t"
b11000 u"
b11000 A
b11000 4"
b11000 H"
b10100 @
b10100 g
b10100 F"
b10100 F
b10100 t
b10100 B"
b10000 R
b10000 !"
b10000 T"
b0 U
b0 |
b0 #"
b0 R"
b0 V
b0 n
b0 }
b0 S"
b0 _"
b0 d"
1O
b101 P
b101 {
b101 Q"
b0 T
b0 ~
b1100 9
b1100 Y"
b1100 j"
b11 :
b11 ("
b11 W"
b11 x"
b101 <
b101 X"
b101 h"
b111 #
1!
#350000
0!
#375000
b100000 .
b100000 o"
b100000 s"
b0 5
b0 a"
b0 f"
b0 l"
b0 y"
b11000 /
b11000 i
b11000 m"
b100000 0
b100000 C"
b100000 n"
b100000 w"
b1 k"
b10000 9
b10000 Y"
b10000 j"
b0 :
b0 ("
b0 W"
b0 x"
b0 <
b0 X"
b0 h"
b101 8
b101 V"
b10100 R
b10100 !"
b10100 T"
b11000 F
b11000 t
b11000 B"
b11100 A
b11100 4"
b11100 H"
b11000 @
b11000 g
b11000 F"
b11100 -
b11100 E"
b11100 J"
b11100 t"
b11100 u"
b1000 #
1!
#400000
0!
#425000
b100100 .
b100100 o"
b100100 s"
b100100 0
b100100 C"
b100100 n"
b100100 w"
b11100 /
b11100 i
b11100 m"
b100000 -
b100000 E"
b100000 J"
b100000 t"
b100000 u"
b100000 A
b100000 4"
b100000 H"
b11100 @
b11100 g
b11100 F"
b11100 F
b11100 t
b11100 B"
b11000 R
b11000 !"
b11000 T"
b10100 9
b10100 Y"
b10100 j"
b1001 #
1!
#450000
0!
#475000
b101000 .
b101000 o"
b101000 s"
b100000 /
b100000 i
b100000 m"
b101000 0
b101000 C"
b101000 n"
b101000 w"
b11000 9
b11000 Y"
b11000 j"
b11100 R
b11100 !"
b11100 T"
b100000 F
b100000 t
b100000 B"
b100100 A
b100100 4"
b100100 H"
b100000 @
b100000 g
b100000 F"
b100100 -
b100100 E"
b100100 J"
b100100 t"
b100100 u"
b1010 #
1!
#500000
0!
#525000
b101100 .
b101100 o"
b101100 s"
b101100 0
b101100 C"
b101100 n"
b101100 w"
b100100 /
b100100 i
b100100 m"
b101000 -
b101000 E"
b101000 J"
b101000 t"
b101000 u"
b101000 A
b101000 4"
b101000 H"
b100100 @
b100100 g
b100100 F"
b100100 F
b100100 t
b100100 B"
b100000 R
b100000 !"
b100000 T"
b11100 9
b11100 Y"
b11100 j"
b1011 #
1!
#550000
0!
#575000
b110000 .
b110000 o"
b110000 s"
b101000 /
b101000 i
b101000 m"
b110000 0
b110000 C"
b110000 n"
b110000 w"
b100000 9
b100000 Y"
b100000 j"
b100100 R
b100100 !"
b100100 T"
b101000 F
b101000 t
b101000 B"
b101100 A
b101100 4"
b101100 H"
b101000 @
b101000 g
b101000 F"
b101100 -
b101100 E"
b101100 J"
b101100 t"
b101100 u"
b1100 #
1!
#600000
0!
#625000
b110100 .
b110100 o"
b110100 s"
b110100 0
b110100 C"
b110100 n"
b110100 w"
b101100 /
b101100 i
b101100 m"
b110000 -
b110000 E"
b110000 J"
b110000 t"
b110000 u"
b110000 A
b110000 4"
b110000 H"
b101100 @
b101100 g
b101100 F"
b101100 F
b101100 t
b101100 B"
b101000 R
b101000 !"
b101000 T"
b100100 9
b100100 Y"
b100100 j"
b1101 #
1!
#650000
0!
#675000
b111000 .
b111000 o"
b111000 s"
b110000 /
b110000 i
b110000 m"
b111000 0
b111000 C"
b111000 n"
b111000 w"
b101000 9
b101000 Y"
b101000 j"
b101100 R
b101100 !"
b101100 T"
b110000 F
b110000 t
b110000 B"
b110100 A
b110100 4"
b110100 H"
b110000 @
b110000 g
b110000 F"
b110100 -
b110100 E"
b110100 J"
b110100 t"
b110100 u"
b1110 #
1!
#700000
0!
#725000
b111100 .
b111100 o"
b111100 s"
b111100 0
b111100 C"
b111100 n"
b111100 w"
b110100 /
b110100 i
b110100 m"
b111000 -
b111000 E"
b111000 J"
b111000 t"
b111000 u"
b111000 A
b111000 4"
b111000 H"
b110100 @
b110100 g
b110100 F"
b110100 F
b110100 t
b110100 B"
b110000 R
b110000 !"
b110000 T"
b101100 9
b101100 Y"
b101100 j"
b1111 #
1!
#750000
0!
#775000
b1000000 .
b1000000 o"
b1000000 s"
b111000 /
b111000 i
b111000 m"
b1000000 0
b1000000 C"
b1000000 n"
b1000000 w"
b110000 9
b110000 Y"
b110000 j"
b110100 R
b110100 !"
b110100 T"
b111000 F
b111000 t
b111000 B"
b111100 A
b111100 4"
b111100 H"
b111000 @
b111000 g
b111000 F"
b111100 -
b111100 E"
b111100 J"
b111100 t"
b111100 u"
b10000 #
1!
#800000
0!
#825000
b1000100 .
b1000100 o"
b1000100 s"
b1000100 0
b1000100 C"
b1000100 n"
b1000100 w"
b111100 /
b111100 i
b111100 m"
b1000000 -
b1000000 E"
b1000000 J"
b1000000 t"
b1000000 u"
b1000000 A
b1000000 4"
b1000000 H"
b111100 @
b111100 g
b111100 F"
b111100 F
b111100 t
b111100 B"
b111000 R
b111000 !"
b111000 T"
b110100 9
b110100 Y"
b110100 j"
b10001 #
1!
#850000
0!
#875000
b1001000 .
b1001000 o"
b1001000 s"
b1000000 /
b1000000 i
b1000000 m"
b1001000 0
b1001000 C"
b1001000 n"
b1001000 w"
b111000 9
b111000 Y"
b111000 j"
b111100 R
b111100 !"
b111100 T"
b1000000 F
b1000000 t
b1000000 B"
b1000100 A
b1000100 4"
b1000100 H"
b1000000 @
b1000000 g
b1000000 F"
b1000100 -
b1000100 E"
b1000100 J"
b1000100 t"
b1000100 u"
b10010 #
1!
#900000
0!
#925000
b1001100 .
b1001100 o"
b1001100 s"
b1001100 0
b1001100 C"
b1001100 n"
b1001100 w"
b1000100 /
b1000100 i
b1000100 m"
b1001000 -
b1001000 E"
b1001000 J"
b1001000 t"
b1001000 u"
b1001000 A
b1001000 4"
b1001000 H"
b1000100 @
b1000100 g
b1000100 F"
b1000100 F
b1000100 t
b1000100 B"
b1000000 R
b1000000 !"
b1000000 T"
b111100 9
b111100 Y"
b111100 j"
b10011 #
1!
#950000
0!
#975000
b1010000 .
b1010000 o"
b1010000 s"
b1001000 /
b1001000 i
b1001000 m"
b1010000 0
b1010000 C"
b1010000 n"
b1010000 w"
b1000000 9
b1000000 Y"
b1000000 j"
b1000100 R
b1000100 !"
b1000100 T"
b1001000 F
b1001000 t
b1001000 B"
b1001100 A
b1001100 4"
b1001100 H"
b1001000 @
b1001000 g
b1001000 F"
b1001100 -
b1001100 E"
b1001100 J"
b1001100 t"
b1001100 u"
b10100 #
1!
#1000000
0!
#1025000
b1010100 .
b1010100 o"
b1010100 s"
b1010100 0
b1010100 C"
b1010100 n"
b1010100 w"
b1001100 /
b1001100 i
b1001100 m"
b1010000 -
b1010000 E"
b1010000 J"
b1010000 t"
b1010000 u"
b1010000 A
b1010000 4"
b1010000 H"
b1001100 @
b1001100 g
b1001100 F"
b1001100 F
b1001100 t
b1001100 B"
b1001000 R
b1001000 !"
b1001000 T"
b1000100 9
b1000100 Y"
b1000100 j"
b10101 #
1!
#1050000
0!
#1075000
b1011000 .
b1011000 o"
b1011000 s"
b1010000 /
b1010000 i
b1010000 m"
b1011000 0
b1011000 C"
b1011000 n"
b1011000 w"
b1001000 9
b1001000 Y"
b1001000 j"
b1001100 R
b1001100 !"
b1001100 T"
b1010000 F
b1010000 t
b1010000 B"
b1010100 A
b1010100 4"
b1010100 H"
b1010000 @
b1010000 g
b1010000 F"
b1010100 -
b1010100 E"
b1010100 J"
b1010100 t"
b1010100 u"
b10110 #
1!
#1100000
0!
#1125000
b1011100 .
b1011100 o"
b1011100 s"
b1011100 0
b1011100 C"
b1011100 n"
b1011100 w"
b1010100 /
b1010100 i
b1010100 m"
b1011000 -
b1011000 E"
b1011000 J"
b1011000 t"
b1011000 u"
b1011000 A
b1011000 4"
b1011000 H"
b1010100 @
b1010100 g
b1010100 F"
b1010100 F
b1010100 t
b1010100 B"
b1010000 R
b1010000 !"
b1010000 T"
b1001100 9
b1001100 Y"
b1001100 j"
b10111 #
1!
#1150000
0!
#1175000
b1100000 .
b1100000 o"
b1100000 s"
b1011000 /
b1011000 i
b1011000 m"
b1100000 0
b1100000 C"
b1100000 n"
b1100000 w"
b1010000 9
b1010000 Y"
b1010000 j"
b1010100 R
b1010100 !"
b1010100 T"
b1011000 F
b1011000 t
b1011000 B"
b1011100 A
b1011100 4"
b1011100 H"
b1011000 @
b1011000 g
b1011000 F"
b1011100 -
b1011100 E"
b1011100 J"
b1011100 t"
b1011100 u"
b11000 #
1!
#1200000
0!
#1225000
b1100100 .
b1100100 o"
b1100100 s"
b1100100 0
b1100100 C"
b1100100 n"
b1100100 w"
b1011100 /
b1011100 i
b1011100 m"
b1100000 -
b1100000 E"
b1100000 J"
b1100000 t"
b1100000 u"
b1100000 A
b1100000 4"
b1100000 H"
b1011100 @
b1011100 g
b1011100 F"
b1011100 F
b1011100 t
b1011100 B"
b1011000 R
b1011000 !"
b1011000 T"
b1010100 9
b1010100 Y"
b1010100 j"
b11001 #
1!
#1250000
0!
#1275000
b1101000 .
b1101000 o"
b1101000 s"
b1100000 /
b1100000 i
b1100000 m"
b1101000 0
b1101000 C"
b1101000 n"
b1101000 w"
b1011000 9
b1011000 Y"
b1011000 j"
b1011100 R
b1011100 !"
b1011100 T"
b1100000 F
b1100000 t
b1100000 B"
b1100100 A
b1100100 4"
b1100100 H"
b1100000 @
b1100000 g
b1100000 F"
b1100100 -
b1100100 E"
b1100100 J"
b1100100 t"
b1100100 u"
b11010 #
1!
#1300000
0!
